id,title,filename,alt,folder
1,Team,us.jpg,Pokemon main characters,page
2,Legal mention,mentions.jpg,Pokemons,page
3,Privacy,privacy.jpeg,Picture of Pikachu Detective,page
4,Pokemon fight,tournament.jpg,Pokemons,article
5,25 years,25years.jpg,Pokemon's birthday,article
6,Pokemon tournament,finales.jpg,Pokemon tournament hall,article
7,Pokemon legends,legends.jpg,Main legendary pokemon,article
8,Pokemon challenge,challenge.jpg,Banner of the Pokemon Legend Team,article
9,Pokemon Advanced battle,advanced_battle.jpg,Banner of the Pokemon Advanced Battle episodes,article
10,Bulbasaur,bulbasaur.png,Bulbasaur,pokemon
11,Ivysaur,ivysaur.png,Ivysaur,pokemon
12,Venussaur,venussaur.png,Venussaur,pokemon
13,Charmander,charmander.png,Charmander,pokemon
14,Charmeleon,charmeleon.png,Charmeleon,pokemon
15,Charizard,charizard.png,Charizard,pokemon
16,Squirtle,squirtle.png,Squirtle,pokemon
17,Wartortle,wartortle.png,Wartortle,pokemon
18,Blastoise,blastoise.png,Blastoise,pokemon
19,Tauros,tauros.png,Tauros,pokemon
20,Lapras,lapras.png,Lapras,pokemon
21,Mew,mew.png,Mew,pokemon